; Engine configuration file.
; It's best edited using the editor UI and not directly,
; since the parameters that go here are not all obvious.
;
; Format:
;   [section] ; section goes between []
;   param=value ; assign values to parameters

config_version=4

_global_script_classes=[ {
"base": "StaticBody",
"class": "MapKai",
"language": "GDScript",
"path": "res://map/MapKai.gd"
}, {
"base": "Spatial",
"class": "MapKaiGrid",
"language": "GDScript",
"path": "res://map/MapKaiGrid.gd"
} ]
_global_script_class_icons={
"MapKai": "",
"MapKaiGrid": ""
}

[application]

config/name="zensekai test [asekai-zensekai]"
run/main_scene="res://map.tscn"
config/icon="res://icon.png"

[debug]

gdscript/warnings/unused_variable=false
gdscript/warnings/unused_argument=false
gdscript/warnings/unreachable_code=false
gdscript/warnings/return_value_discarded=false

[display]

window/size/width=384
window/size/height=768
window/handheld/orientation="portrait"

[input]

ui_click={
"deadzone": 0.5,
"events": [ Object(InputEventMouseButton,"resource_local_to_scene":false,"resource_name":"","device":0,"alt":false,"shift":false,"control":false,"meta":false,"command":false,"button_mask":0,"position":Vector2( 0, 0 ),"global_position":Vector2( 0, 0 ),"factor":1.0,"button_index":1,"pressed":false,"doubleclick":false,"script":null)
 ]
}

[layer_names]

3d_physics/layer_1="player"
3d_physics/layer_2="agent"
3d_physics/layer_3="notice"

[rendering]

quality/driver/driver_name="GLES2"
environment/default_environment="res://default_env.tres"
